<?xml version="1.0" encoding="UTF-8" standalone="no"?>
<!-- Created with Inkscape (http://www.inkscape.org/) -->

<svg
   xmlns:dc="http://purl.org/dc/elements/1.1/"
   xmlns:cc="http://creativecommons.org/ns#"
   xmlns:rdf="http://www.w3.org/1999/02/22-rdf-syntax-ns#"
   xmlns:svg="http://www.w3.org/2000/svg"
   xmlns="http://www.w3.org/2000/svg"
   xmlns:sodipodi="http://sodipodi.sourceforge.net/DTD/sodipodi-0.dtd"
   xmlns:inkscape="http://www.inkscape.org/namespaces/inkscape"
   width="160.64111mm"
   height="133.7916mm"
   viewBox="0 0 160.64111 133.7916"
   version="1.1"
   id="svg80"
   inkscape:version="0.92.4 (5da689c313, 2019-01-14)"
   sodipodi:docname="cloud_laptop_repair.svg">
  <defs
     id="defs74" />
  <sodipodi:namedview
     id="base"
     pagecolor="#ffffff"
     bordercolor="#666666"
     borderopacity="1.0"
     inkscape:pageopacity="0.0"
     inkscape:pageshadow="2"
     inkscape:zoom="0.35"
     inkscape:cx="-831.9999"
     inkscape:cy="282.83453"
     inkscape:document-units="mm"
     inkscape:current-layer="layer1"
     showgrid="false"
     inkscape:window-width="1680"
     inkscape:window-height="987"
     inkscape:window-x="1358"
     inkscape:window-y="-8"
     inkscape:window-maximized="1" />
  <metadata
     id="metadata77">
    <rdf:RDF>
      <cc:Work
         rdf:about="">
        <dc:format>image/svg+xml</dc:format>
        <dc:type
           rdf:resource="http://purl.org/dc/dcmitype/StillImage" />
        <dc:title />
      </cc:Work>
    </rdf:RDF>
  </metadata>
  <g
     inkscape:label="Calque 1"
     inkscape:groupmode="layer"
     id="layer1"
     transform="translate(-22.829736,-89.875036)">
    <path
       style="fill:#000000;stroke-width:1.67334187"
       d="m 120.17552,220.05595 c -5.24638,-5.58448 -4.53583,-9.30932 3.29857,-17.29204 6.70657,-6.83349 6.94272,-7.44677 7.11171,-18.47008 0.26942,-17.56203 9.47458,-27.29863 25.80928,-27.29863 12.8022,0 13.17824,1.22757 3.40698,11.12178 l -8.87616,8.98772 6.21769,6.21769 6.21768,6.21769 8.98779,-8.8761 c 9.89421,-9.77127 11.12179,-9.39522 11.12179,3.40697 0,16.33465 -9.73661,25.54005 -27.29863,25.80929 -11.02332,0.16886 -11.6366,0.40539 -18.4701,7.1117 -8.02931,7.88013 -12.30059,8.62687 -17.5266,3.06401 z M 22.830052,190.46199 v -6.69335 h 10.331735 10.331729 l -3.638383,-3.8729 c -3.522588,-3.74963 -3.638325,-5.1245 -3.638325,-43.21516 0,-52.369354 -8.284955,-46.619109 67.168132,-46.619109 h 59.42243 l 3.6384,3.872901 c 3.39091,3.609489 3.63832,5.526239 3.63832,28.183358 v 24.31059 l -6.27499,-1.01748 -6.27505,-1.01748 -0.46991,-20.47253 -0.46989,-20.4726 H 103.09882 49.603374 v 33.46687 33.46678 h 34.963982 34.963954 l -1.41965,6.27505 c -0.78075,3.45126 -0.9887,7.99967 -0.46232,10.10748 2.44187,9.77379 -0.52176,10.39099 -49.898743,10.39099 H 22.829736 Z"
       id="path275"
       inkscape:connector-curvature="0" />
  </g>
</svg>
